/Users/smid/icpc/IdeaProjects/myicpc/myicpc-kiosk/src/main/java/com/myicpc/repository/kiosk/KioskContentRepository.java
/Users/smid/icpc/IdeaProjects/myicpc/myicpc-kiosk/src/main/java/com/myicpc/controller/kiosk/admin/KioskAdminController.java
/Users/smid/icpc/IdeaProjects/myicpc/myicpc-kiosk/src/main/java/com/myicpc/controller/kiosk/KioskController.java
/Users/smid/icpc/IdeaProjects/myicpc/myicpc-kiosk/src/main/java/com/myicpc/service/kiosk/KioskMngService.java
/Users/smid/icpc/IdeaProjects/myicpc/myicpc-kiosk/src/main/java/com/myicpc/model/kiosk/KioskContent.java
/Users/smid/icpc/IdeaProjects/myicpc/myicpc-kiosk/src/main/java/com/myicpc/service/kiosk/KioskService.java
