com/myicpc/service/scoreboard/insight/CodeInsightService$1.class
com/myicpc/service/scoreboard/insight/AbstractInsightService.class
com/myicpc/service/scoreboard/exception/CodeInsightException.class
com/myicpc/service/scoreboard/dto/eventFeed/EventFeedControlDTO$EventFeedControlType.class
com/myicpc/service/scoreboard/eventFeed/ControlFeedService.class
com/myicpc/service/scoreboard/dto/insight/DashboardInsightDTO$DashboardResult.class
com/myicpc/service/scoreboard/dto/insight/CodeInsightTeam$LineCountComparator.class
com/myicpc/service/scoreboard/eventFeed/ControlFeedService$RunningFeedProcessDTO.class
com/myicpc/service/scoreboard/dto/eventFeed/EventFeedControlDTO.class
com/myicpc/service/scoreboard/team/TeamService$ContestParticipantWithRoleKey.class
com/myicpc/service/scoreboard/dto/insight/CodeInsightTeam$DiffLineCountComparator.class
com/myicpc/service/scoreboard/eventFeed/strategy/NativeRunStrategy.class
com/myicpc/service/scoreboard/receiver/CodeInsightReceiver.class
com/myicpc/service/scoreboard/dto/insight/InsightReport.class
com/myicpc/service/scoreboard/receiver/CodeInsightReceiver$1.class
com/myicpc/service/scoreboard/insight/CodeInsightService$InsideCodeMode.class
com/myicpc/service/scoreboard/dto/insight/CodeInsightProblem.class
com/myicpc/service/scoreboard/dto/SubmissionDTO.class
com/myicpc/service/scoreboard/eventFeed/ControlFeedService$2.class
com/myicpc/service/scoreboard/dto/insight/ReportByJudgement.class
com/myicpc/service/scoreboard/dto/insight/ReportByProblem.class
com/myicpc/service/scoreboard/dto/insight/ReportByJudgement$1.class
com/myicpc/service/scoreboard/eventFeed/strategy/FeedRunStrategy.class
com/myicpc/service/scoreboard/eventFeed/ControlFeedService$EventFeedHolder.class
com/myicpc/service/scoreboard/exception/EventFeedInterrupted.class
com/myicpc/service/scoreboard/eventFeed/ControlFeedService$1.class
com/myicpc/service/scoreboard/team/TeamWSService.class
com/myicpc/service/scoreboard/insight/LanguageInsightService.class
com/myicpc/service/scoreboard/eventFeed/strategy/JSONRunStrategy.class
com/myicpc/service/scoreboard/eventFeed/EventFeedProcessor.class
com/myicpc/service/scoreboard/dto/insight/CodeInsightTeam.class
com/myicpc/service/scoreboard/exception/EventFeedException.class
com/myicpc/service/scoreboard/ScoreboardService.class
com/myicpc/service/scoreboard/eventFeed/ControlFeedService$3.class
com/myicpc/service/scoreboard/team/TeamService.class
com/myicpc/service/scoreboard/eventFeed/strategy/NativeRunStrategy$ScoreboardComparator.class
com/myicpc/service/scoreboard/problem/ProblemServiceImpl.class
com/myicpc/service/scoreboard/problem/ProblemService.class
com/myicpc/service/scoreboard/team/CmSynchronizationReceiver$1.class
com/myicpc/service/scoreboard/insight/CodeInsightService.class
com/myicpc/service/scoreboard/ScoreboardServiceImpl$1.class
com/myicpc/service/scoreboard/ScoreboardServiceImpl.class
com/myicpc/service/scoreboard/insight/ProblemInsightService.class
com/myicpc/service/scoreboard/eventFeed/EventFeedVisitorImpl.class
com/myicpc/service/scoreboard/eventFeed/AnalystMessageService.class
com/myicpc/service/scoreboard/insight/DashboardInsightService.class
com/myicpc/service/scoreboard/dto/insight/DashboardInsightDTO.class
com/myicpc/service/scoreboard/dto/insight/CodeInsightSnapshot.class
com/myicpc/service/scoreboard/dto/eventFeed/EventFeedControlResponseDTO.class
com/myicpc/service/scoreboard/eventFeed/EventFeedVisitorImpl$1.class
com/myicpc/service/scoreboard/dto/insight/ReportByLanguage.class
com/myicpc/service/scoreboard/team/CmSynchronizationReceiver.class
