com/myicpc/service/quest/report/QuestReportService.class
com/myicpc/service/quest/report/template/QuestChallengeGuide$RequiredAttachmentsExpression.class
com/myicpc/service/quest/QuestSubmissionService.class
com/myicpc/service/quest/QuestService.class
com/myicpc/service/quest/QuestMngmService.class
com/myicpc/service/quest/receiver/QuestNotificationReceiver.class
com/myicpc/service/quest/QuestMngmService$1.class
com/myicpc/service/quest/QuestSubmissionService$1.class
com/myicpc/service/quest/report/template/QuestChallengeGuide$SubreportExpression.class
com/myicpc/service/quest/receiver/QuestNotificationReceiver$1.class
com/myicpc/service/quest/report/template/QuestChallengeGuide.class
com/myicpc/service/quest/QuestService$1.class
